[gd_scene load_steps=11 format=2]

[ext_resource path="res://meshes/Spaceship.tscn" type="PackedScene" id=1]
[ext_resource path="res://scripts/ship.gd" type="Script" id=2]
[ext_resource path="res://actors/bullet.tscn" type="PackedScene" id=3]
[ext_resource path="res://reticle.png" type="Texture" id=4]

[sub_resource type="ConvexPolygonShape" id=1]
points = PoolVector3Array( -0.487825, -0.193369, 1.49514, -0.487825, 0.298459, 1.49514, -0.487825, 0.298459, 1.54434, -0.438613, -0.242494, 1.49514, -0.438613, -0.193369, 1.74117, -0.389401, 0.249334, 1.93781, -0.340189, -0.193369, 2.03622, -0.340189, 0.249334, 2.08543, -0.301859, -0.122239, 2.0991, -0.241766, 0.298459, 2.1347, -0.192651, -0.390159, 1.54434, -0.143439, -0.291716, 2.1347, -0.143439, 0.495344, 1.54434, -0.0942271, -0.439284, 1.49514, -0.0450153, -0.439284, 1.69196, -0.0450153, 0.396902, 2.1347, -0.0450153, 0.544566, 1.49514, 0.0532155, -0.340841, 2.1347, 0.0532155, 0.396902, 2.1347, 0.0532155, 0.544566, 1.54434, 0.102427, -0.439284, 1.49514, 0.102427, -0.439284, 1.54434, 0.151639, -0.291716, 2.1347, 0.151639, 0.347777, 2.1347, 0.299178, -0.193369, 2.1347, 0.34839, 0.249334, 2.08543, 0.397601, 0.249334, 1.93781, 0.496025, -0.193369, 1.49514, 0.496025, -0.193369, 1.54434, 0.496025, 0.298459, 1.49514, 0.496025, 0.298459, 1.54434 )

[sub_resource type="ConvexPolygonShape" id=2]
points = PoolVector3Array( -1.12268, -0.181921, 0.67771, -1.10612, 0.422677, 1.1925, -1.07817, 0.232914, 0.693475, -1.07733, -0.217645, 1.27965, -1.07622, 0.412714, 1.27944, -1.0288, -0.537515, 1.29825, -1.00501, 0.557063, 1.09968, -0.997524, 0.553319, 1.28173, -0.931842, 0.473688, 0.679018, -0.885566, 0.319461, 1.36603, -0.818433, -0.449978, 0.688337, -0.749958, 0.407501, 1.40963, -0.746692, -0.256409, 1.40819, -0.620391, -0.705548, 1.27761, -0.596175, 0.88384, 1.23842, -0.59357, -0.728863, 1.09974, -0.575083, 0.854633, 1.27738, -0.55205, 0.74778, 0.682764, -0.550945, -0.641117, 0.683547, -0.501758, -0.775337, 1.19185, -0.446912, -0.172784, 1.46045, -0.439339, 0.274455, 1.45401, -0.409565, -0.683118, 0.685869, -0.365433, 0.791773, 0.684077, -0.132843, -0.860818, 1.19103, -0.128974, 0.762696, 1.40979, -0.127989, -0.828444, 1.27512, -0.0878234, 0.834881, 0.685587, -0.0873016, 0.967868, 1.19125, -0.0862656, 0.957494, 1.28047, -0.0837343, -0.650894, 1.40673, -0.041756, -0.775731, 0.777659, -0.0399857, 0.495098, 1.45302, 0.0487023, -0.663669, 1.41272, 0.0943366, 0.956297, 1.2802, 0.0953326, 0.966271, 1.19106, 0.095869, 0.833648, 0.686204, 0.136598, 0.760781, 1.40889, 0.142088, -0.869299, 1.23813, 0.187707, -0.727721, 0.686526, 0.373041, 0.790608, 0.684696, 0.444301, 0.272736, 1.45109, 0.45159, -0.170923, 1.45729, 0.508902, -0.773624, 1.19162, 0.55632, -0.637327, 0.685695, 0.557498, 0.744081, 0.684861, 0.581671, 0.852414, 1.27683, 0.603247, 0.88229, 1.23812, 0.625668, -0.702264, 1.27674, 0.641669, -0.721698, 1.19075, 0.676905, -0.306143, 1.41331, 0.707277, 0.448157, 1.4066, 0.758886, -0.213721, 1.40996, 0.760582, 0.364037, 1.4107, 0.886748, 0.517202, 0.681902, 0.920196, -0.496986, 1.09966, 0.949502, 0.592689, 1.27945, 1.00834, 0.554739, 1.09957, 1.02177, -0.409801, 1.23871, 1.07931, 0.411012, 1.27848, 1.08001, -0.216269, 1.27861, 1.08603, 0.232859, 0.693592, 1.11976, 0.424496, 1.23957, 1.12714, -0.181327, 0.679033 )

[sub_resource type="ConvexPolygonShape" id=3]
points = PoolVector3Array( -1.2158, -0.048858, -0.965032, -1.11907, -0.181298, 0.579326, -1.0743, 0.232094, 0.517774, -1.02661, 0.224157, -0.965032, -0.903117, 0.460917, 0.532112, -0.822641, 0.557977, 0.551057, -0.815117, 0.553378, 0.172862, -0.78072, -0.409058, -1.33439, -0.769506, -0.448062, -0.782993, -0.683326, -0.543051, 0.547542, -0.550252, 0.745843, 0.560033, -0.549173, -0.639212, 0.557064, -0.508879, -0.180592, -2.27143, -0.504739, 0.283838, -2.26089, -0.500863, -0.59027, -1.37836, -0.500047, 0.694513, -1.37769, -0.499547, 0.739767, -0.919456, -0.498862, -0.63355, -1.05606, -0.455613, -0.637353, -1.28658, -0.453218, 0.739039, -1.28491, -0.40823, -0.680884, 0.54803, -0.363899, 0.788846, 0.553558, -0.224822, -0.679943, -1.28512, -0.179252, -0.72691, 0.548214, -0.08994, 0.287346, -2.51548, -0.0879866, 0.788677, -1.28663, -0.0879101, -0.222894, -2.48201, -0.0876084, 0.831553, 0.546974, -0.0867478, -0.673493, -1.3735, -0.0413265, -0.265052, -2.41719, -0.0412683, 0.324363, -2.46102, 0.00410008, -0.732928, -0.734262, 0.00410008, -0.63289, -1.51333, 0.0491551, 0.323759, -2.45769, 0.0500969, 0.837661, 0.55883, 0.0504629, -0.226347, -2.50102, 0.0945874, -0.672313, -1.37284, 0.0958385, 0.787618, -1.28617, 0.142686, -0.734528, 0.563002, 0.37148, 0.787608, 0.551004, 0.374301, -0.687969, 0.562644, 0.418633, 0.743701, -1.28708, 0.463117, -0.635983, -1.28594, 0.50171, -0.490147, -1.59839, 0.501719, 0.685931, -1.37218, 0.503338, 0.324697, -2.19044, 0.506136, 0.28065, -2.24301, 0.506468, -0.632446, -0.965032, 0.507047, 0.738518, -0.87375, 0.513093, -0.178681, -2.26072, 0.545217, 0.683856, -1.09991, 0.554415, -0.635244, 0.548336, 0.555565, 0.741963, 0.551496, 0.687685, -0.539722, 0.53909, 0.687795, -0.494303, -1.28399, 0.728868, 0.596173, -0.24037, 0.777798, -0.447832, -0.555728, 0.784907, -0.40657, -1.3321, 0.884256, 0.515868, 0.563976, 1.03384, 0.224139, -0.965032, 1.06464, -0.168106, -0.920782, 1.08145, 0.232068, 0.516327, 1.12434, -0.180532, 0.575297, 1.2158, 0.00223267, -0.965032 )

[sub_resource type="ConvexPolygonShape" id=4]
points = PoolVector3Array( 1.11924, 0.328767, 1.11488, 1.18495, -0.242572, 0.904148, 1.18495, -0.242572, 1.29827, 1.18495, -0.193355, -0.915584, 1.18495, -0.144138, -1.21092, 1.18495, 0.298652, 1.29827, 1.23419, 0.101785, -1.21092, 1.25154, 0.224419, -0.812956, 1.28343, -0.193355, -1.21092, 1.28343, 0.150949, -1.21092, 1.3818, -0.242572, 1.10121, 1.3818, -0.242572, 1.29827, 1.6447, 0.22415, -0.681129, 1.67713, 0.298652, 1.249, 1.67713, 0.298652, 1.29827, 1.87363, -0.144138, -1.30945, 1.87363, 0.101785, -1.30945, 2.02123, 0.150949, -1.30945, 2.03691, 0.224128, -0.463059, 2.07059, -0.193355, -1.30945, 2.07059, -0.193355, 0.707344, 2.11971, -0.144138, -1.30945, 2.11971, 0.101785, -1.30945, 2.21808, -0.0949219, 1.29827, 2.28876, 0.2205, 0.528866, 2.3658, -0.0457583, 0.60907, 2.3658, -0.0457583, 1.29827, 2.3658, 0.249382, 1.29827 )

[sub_resource type="ConvexPolygonShape" id=5]
points = PoolVector3Array( -2.3576, -0.0457583, 0.559805, -2.3576, -0.0457583, 1.29827, -2.3576, 0.249382, 1.29827, -2.27727, 0.219266, 0.482877, -2.20988, -0.0949219, 1.29827, -2.16075, -0.0949219, -1.30945, -2.16075, 0.0525689, -1.30945, -2.11151, 0.101785, -1.30945, -2.06239, -0.193355, -1.30945, -2.06239, -0.193355, 0.707344, -2.02878, 0.224185, -0.463192, -2.01303, 0.150949, -1.30945, -1.86543, -0.144138, -1.30945, -1.86543, 0.101785, -1.30945, -1.66893, 0.298652, 1.19948, -1.66893, 0.298652, 1.29827, -1.54924, 0.224152, -0.724785, -1.3736, -0.242572, 1.10121, -1.3736, -0.242572, 1.29827, -1.27523, -0.193355, -1.21092, -1.27523, 0.150949, -1.21092, -1.24328, 0.22444, -0.813039, -1.22599, 0.101785, -1.21092, -1.17675, -0.242572, 0.904148, -1.17675, -0.242572, 1.29827, -1.17675, -0.193355, -0.915584, -1.17675, -0.144138, -1.21092, -1.17675, 0.298652, 1.29827, -1.11719, 0.325949, 1.10438 )

[sub_resource type="SpatialMaterial" id=6]
flags_transparent = true
flags_unshaded = true
flags_no_depth_test = true
params_billboard_mode = 1
params_billboard_keep_scale = true
albedo_texture = ExtResource( 4 )

[node name="Ship" type="KinematicBody"]
collision_mask = 4
script = ExtResource( 2 )
bullet_resource = ExtResource( 3 )

[node name="Spaceship" parent="." instance=ExtResource( 1 )]

[node name="GunLeft1" type="Spatial" parent="Spaceship"]
transform = Transform( 1, 0, 0, 0, 1, 0, 0, 0, 1, -2.00463, -0.0120391, -1.37044 )

[node name="GunRight1" type="Spatial" parent="Spaceship"]
transform = Transform( 1, 0, 0, 0, 1, 0, 0, 0, 1, 2.00826, -0.0120391, -1.37044 )

[node name="GunRight2" type="Spatial" parent="Spaceship"]
transform = Transform( 1, 0, 0, 0, 1, 0, 0, 0, 1, 1.30395, -0.0120391, -1.27217 )

[node name="GunLeft2" type="Spatial" parent="Spaceship"]
transform = Transform( 1, 0, 0, 0, 1, 0, 0, 0, 1, -1.30852, -0.0120391, -1.27217 )

[node name="Engine" type="CollisionShape" parent="."]
shape = SubResource( 1 )

[node name="Rear" type="CollisionShape" parent="."]
shape = SubResource( 2 )

[node name="Fuselage" type="CollisionShape" parent="."]
shape = SubResource( 3 )

[node name="WingRight" type="CollisionShape" parent="."]
shape = SubResource( 4 )

[node name="WingLeft" type="CollisionShape" parent="."]
shape = SubResource( 5 )

[node name="SpotLight" type="SpotLight" parent="."]
transform = Transform( 1, 0, 0, 0, 1, 0, 0, 0, 1, 0, 0.431985, -2.54527 )
light_color = Color( 0.968627, 0.960784, 0.784314, 1 )
light_energy = 4.0
light_specular = 1.0
light_cull_mask = 2147483647
shadow_enabled = true
spot_range = 45.036
spot_angle = 22.2466
spot_angle_attenuation = 0.26

[node name="Reticle" type="Sprite3D" parent="."]
transform = Transform( 1.32958, 0, 0, 0, 1.32958, 0, 0, 0, 1.32958, 0, 0, 0 )
material_override = SubResource( 6 )
texture = ExtResource( 4 )
