[gd_scene load_steps=3 format=2]

[ext_resource path="res://meshes/Material.material" type="Material" id=1]


[sub_resource type="ArrayMesh" id=1]
resource_name = "Spaceship"
surfaces/0 = {
"aabb": AABB( -2.33297, -0.90679, -2.56405, 4.66595, 1.91008, 4.67411 ),
"array_data": PoolByteArray( 32, 193, 122, 191, 63, 152, 78, 190, 156, 181, 52, 63, 147, 196, 237, 0, 244, 239, 125, 127, 34, 54, 24, 58, 162, 35, 86, 191, 73, 4, 224, 190, 156, 181, 52, 63, 163, 172, 238, 0, 247, 240, 125, 127, 39, 54, 57, 58, 50, 192, 120, 191, 201, 28, 2, 191, 24, 10, 161, 63, 165, 174, 224, 0, 237, 230, 122, 127, 178, 54, 49, 58, 148, 107, 144, 191, 58, 249, 109, 190, 24, 10, 161, 63, 151, 195, 224, 0, 235, 229, 122, 127, 169, 54, 11, 58, 113, 53, 133, 191, 212, 203, 110, 62, 158, 181, 52, 63, 254, 126, 254, 0, 133, 254, 226, 127, 246, 54, 250, 48, 148, 81, 15, 191, 244, 42, 138, 62, 50, 165, 165, 191, 242, 126, 0, 0, 134, 243, 227, 127, 2, 55, 255, 55, 54, 101, 119, 191, 108, 117, 101, 62, 212, 108, 128, 191, 246, 126, 0, 0, 134, 246, 225, 127, 224, 55, 248, 54, 204, 94, 6, 191, 84, 7, 41, 191, 156, 181, 52, 63, 207, 141, 240, 0, 252, 240, 125, 127, 42, 54, 105, 58, 202, 196, 75, 191, 249, 42, 213, 190, 50, 165, 165, 191, 160, 177, 232, 0, 11, 207, 116, 127, 45, 52, 63, 58, 2, 0, 0, 191, 230, 3, 33, 191, 50, 165, 165, 191, 198, 147, 231, 0, 3, 226, 123, 127, 20, 52, 107, 58, 185, 34, 6, 191, 57, 133, 68, 63, 156, 181, 52, 63, 210, 116, 238, 0, 118, 46, 251, 127, 185, 48, 143, 56, 52, 134, 132, 51, 95, 90, 89, 63, 156, 181, 52, 63, 0, 125, 239, 0, 126, 0, 253, 127, 120, 51, 150, 56, 40, 244, 242, 179, 24, 239, 76, 63, 50, 165, 165, 191, 0, 124, 230, 0, 126, 0, 254, 127, 183, 51, 78, 52, 2, 0, 0, 191, 248, 135, 59, 63, 50, 165, 165, 191, 232, 122, 231, 0, 124, 24, 252, 127, 96, 49, 70, 52, 36, 242, 0, 191, 177, 178, 142, 62, 16, 173, 18, 192, 234, 115, 208, 0, 124, 21, 250, 127, 5, 49, 235, 46, 171, 175, 112, 180, 2, 39, 150, 62, 107, 25, 36, 192, 0, 116, 207, 0, 126, 0, 255, 127, 141, 51, 151, 44, 36, 242, 0, 191, 177, 178, 142, 62, 16, 173, 18, 192, 243, 126, 0, 0, 134, 243, 227, 127, 138, 55, 85, 57, 63, 201, 110, 191, 64, 225, 248, 62, 156, 181, 52, 63, 158, 75, 231, 0, 79, 98, 246, 127, 83, 44, 135, 56, 52, 134, 132, 51, 199, 10, 68, 191, 156, 181, 52, 63, 0, 131, 240, 0, 1, 240, 125, 127, 45, 54, 170, 58, 40, 244, 242, 179, 173, 163, 56, 191, 50, 165, 165, 191, 0, 132, 231, 0, 4, 231, 124, 127, 30, 52, 175, 58, 98, 78, 137, 191, 58, 28, 15, 63, 24, 10, 161, 63, 160, 75, 222, 0, 80, 97, 247, 127, 140, 42, 68, 57, 190, 2, 27, 191, 174, 26, 99, 63, 24, 10, 161, 63, 209, 113, 224, 0, 117, 48, 252, 127, 101, 48, 74, 57, 252, 199, 27, 191, 77, 246, 67, 191, 24, 10, 161, 63, 206, 144, 226, 0, 244, 229, 123, 127, 180, 54, 100, 58, 241, 7, 33, 51, 119, 48, 220, 62, 198, 148, 219, 62, 195, 111, 249, 0, 7, 12, 126, 127, 161, 39, 153, 57, 231, 135, 198, 190, 237, 83, 93, 62, 198, 148, 219, 62, 195, 111, 249, 0, 3, 10, 126, 127, 246, 37, 1, 58, 147, 46, 218, 190, 68, 60, 115, 62, 240, 156, 134, 63, 196, 109, 233, 0, 253, 24, 124, 127, 177, 45, 16, 58, 59, 112, 197, 51, 54, 246, 241, 62, 240, 156, 134, 63, 196, 109, 233, 0, 8, 30, 122, 127, 124, 46, 167, 57, 28, 242, 0, 63, 26, 85, 51, 190, 16, 173, 18, 192, 117, 234, 214, 0, 24, 187, 103, 127, 247, 49, 242, 58, 92, 26, 103, 63, 76, 126, 69, 190, 212, 108, 128, 191, 117, 213, 234, 0, 250, 184, 104, 127, 255, 51, 69, 59, 198, 196, 75, 63, 249, 42, 213, 190, 50, 165, 165, 191, 96, 177, 232, 0, 0, 219, 121, 127, 48, 52, 33, 59, 252, 255, 255, 62, 230, 3, 33, 191, 50, 165, 165, 191, 58, 147, 231, 0, 3, 230, 124, 127, 21, 52, 243, 58, 92, 26, 103, 191, 76, 126, 69, 190, 212, 108, 128, 191, 139, 213, 234, 0, 214, 119, 246, 127, 249, 57, 188, 57, 54, 101, 119, 191, 108, 117, 101, 62, 212, 108, 128, 191, 136, 248, 216, 0, 248, 126, 254, 127, 74, 58, 192, 57, 36, 242, 0, 191, 177, 178, 142, 62, 16, 173, 18, 192, 136, 248, 216, 0, 248, 126, 254, 127, 84, 58, 185, 56, 36, 242, 0, 191, 26, 85, 51, 190, 16, 173, 18, 192, 139, 234, 214, 0, 235, 125, 249, 127, 253, 57, 185, 56, 36, 242, 0, 191, 26, 85, 51, 190, 16, 173, 18, 192, 228, 142, 208, 0, 15, 204, 114, 127, 246, 49, 122, 58, 171, 175, 112, 180, 88, 32, 91, 190, 107, 25, 36, 192, 0, 140, 207, 0, 6, 207, 116, 127, 136, 49, 183, 58, 36, 242, 0, 191, 26, 85, 51, 190, 16, 173, 18, 192, 196, 0, 145, 0, 0, 127, 0, 127, 253, 57, 185, 56, 36, 242, 0, 191, 177, 178, 142, 62, 16, 173, 18, 192, 196, 0, 145, 0, 0, 127, 0, 127, 84, 58, 185, 56, 171, 175, 112, 180, 2, 39, 150, 62, 107, 25, 36, 192, 196, 0, 145, 0, 0, 127, 0, 127, 87, 58, 75, 56, 171, 175, 112, 180, 88, 32, 91, 190, 107, 25, 36, 192, 196, 0, 145, 0, 0, 127, 0, 127, 246, 57, 75, 56, 92, 26, 103, 191, 76, 126, 69, 190, 212, 108, 128, 191, 139, 213, 234, 0, 237, 245, 124, 127, 116, 52, 33, 58, 157, 207, 1, 192, 109, 117, 101, 62, 144, 108, 3, 191, 0, 126, 0, 0, 133, 0, 226, 127, 40, 57, 2, 53, 116, 79, 21, 192, 109, 117, 101, 62, 160, 181, 52, 63, 255, 126, 254, 0, 133, 254, 226, 127, 40, 57, 155, 46, 194, 50, 236, 51, 93, 35, 104, 191, 24, 10, 161, 63, 0, 133, 227, 0, 0, 227, 123, 127, 179, 54, 170, 58, 113, 53, 133, 191, 212, 203, 110, 62, 158, 181, 52, 63, 143, 47, 226, 0, 51, 115, 244, 127, 101, 38, 127, 56, 103, 254, 151, 191, 76, 60, 136, 62, 24, 10, 161, 63, 143, 46, 223, 0, 50, 115, 244, 127, 18, 27, 56, 57, 116, 79, 21, 192, 8, 167, 138, 188, 160, 181, 52, 63, 130, 0, 241, 0, 255, 126, 11, 127, 69, 58, 149, 59, 116, 79, 21, 192, 109, 117, 101, 62, 160, 181, 52, 63, 130, 0, 241, 0, 255, 126, 11, 127, 116, 58, 145, 59, 157, 207, 1, 192, 109, 117, 101, 62, 144, 108, 3, 191, 133, 0, 226, 0, 254, 126, 11, 127, 94, 58, 160, 58, 157, 207, 1, 192, 8, 167, 138, 188, 144, 108, 3, 191, 133, 0, 226, 0, 254, 126, 11, 127, 48, 58, 164, 58, 92, 26, 103, 191, 76, 126, 69, 190, 212, 108, 128, 191, 238, 131, 254, 0, 254, 254, 126, 127, 116, 52, 33, 58, 32, 193, 122, 191, 63, 152, 78, 190, 156, 181, 52, 63, 237, 131, 252, 0, 253, 253, 126, 127, 34, 54, 24, 58, 116, 79, 21, 192, 8, 167, 138, 188, 160, 181, 52, 63, 237, 131, 252, 0, 251, 253, 126, 127, 45, 54, 119, 57, 157, 207, 1, 192, 8, 167, 138, 188, 144, 108, 3, 191, 238, 131, 254, 0, 251, 254, 126, 127, 249, 52, 150, 57, 54, 101, 119, 191, 108, 117, 101, 62, 212, 108, 128, 191, 204, 251, 141, 0, 244, 126, 0, 127, 74, 58, 192, 57, 92, 26, 103, 191, 76, 126, 69, 190, 212, 108, 128, 191, 204, 251, 141, 0, 244, 126, 0, 127, 249, 57, 188, 57, 157, 207, 1, 192, 8, 167, 138, 188, 144, 108, 3, 191, 204, 251, 141, 0, 244, 126, 0, 127, 48, 58, 164, 58, 157, 207, 1, 192, 109, 117, 101, 62, 144, 108, 3, 191, 204, 251, 141, 0, 244, 126, 0, 127, 94, 58, 160, 58, 116, 79, 21, 192, 8, 167, 138, 188, 26, 10, 161, 63, 129, 0, 0, 0, 0, 126, 11, 127, 79, 58, 255, 59, 116, 79, 21, 192, 109, 117, 101, 62, 26, 10, 161, 63, 129, 0, 0, 0, 0, 126, 11, 127, 125, 58, 251, 59, 134, 186, 50, 191, 113, 64, 199, 62, 104, 109, 183, 63, 219, 28, 118, 0, 121, 0, 38, 127, 125, 56, 54, 59, 190, 2, 27, 191, 174, 26, 99, 63, 24, 10, 161, 63, 230, 50, 113, 0, 123, 3, 27, 127, 131, 56, 228, 58, 98, 78, 137, 191, 58, 28, 15, 63, 24, 10, 161, 63, 219, 35, 115, 0, 120, 254, 40, 127, 68, 56, 27, 59, 103, 254, 151, 191, 76, 60, 136, 62, 24, 10, 161, 63, 230, 7, 123, 0, 124, 252, 27, 127, 53, 56, 75, 59, 120, 132, 6, 52, 146, 73, 70, 63, 104, 109, 183, 63, 0, 57, 113, 0, 126, 0, 0, 127, 215, 56, 252, 58, 194, 50, 236, 51, 221, 107, 128, 63, 24, 10, 161, 63, 0, 57, 113, 0, 126, 0, 0, 127, 213, 56, 210, 58, 194, 50, 236, 51, 93, 35, 104, 191, 24, 10, 161, 63, 0, 201, 114, 0, 126, 252, 254, 127, 231, 56, 242, 59, 120, 132, 6, 52, 162, 54, 42, 191, 104, 109, 183, 63, 0, 201, 114, 0, 126, 253, 255, 127, 227, 56, 199, 59, 254, 228, 50, 191, 46, 163, 122, 190, 104, 109, 183, 63, 218, 228, 117, 0, 121, 249, 37, 127, 129, 56, 147, 59, 252, 199, 27, 191, 77, 246, 67, 191, 24, 10, 161, 63, 229, 207, 113, 0, 123, 245, 25, 127, 144, 56, 226, 59, 148, 107, 144, 191, 58, 249, 109, 190, 24, 10, 161, 63, 227, 245, 123, 0, 123, 251, 29, 127, 66, 56, 149, 59, 50, 192, 120, 191, 201, 28, 2, 191, 24, 10, 161, 63, 218, 219, 115, 0, 121, 244, 36, 127, 91, 56, 189, 59, 116, 79, 21, 192, 109, 117, 101, 62, 26, 10, 161, 63, 0, 0, 127, 0, 126, 253, 0, 127, 53, 55, 86, 59, 116, 79, 21, 192, 8, 167, 138, 188, 26, 10, 161, 63, 0, 0, 127, 0, 126, 253, 0, 127, 59, 55, 122, 59, 222, 146, 198, 190, 180, 26, 11, 190, 198, 148, 219, 62, 121, 0, 37, 0, 21, 154, 185, 127, 43, 59, 213, 53, 231, 135, 198, 190, 237, 83, 93, 62, 198, 148, 219, 62, 121, 0, 37, 0, 18, 146, 197, 127, 11, 59, 174, 53, 134, 186, 50, 191, 113, 64, 199, 62, 104, 109, 183, 63, 121, 0, 37, 0, 26, 166, 171, 127, 95, 58, 103, 54, 254, 228, 50, 191, 46, 163, 122, 190, 104, 109, 183, 63, 121, 0, 37, 0, 28, 173, 165, 127, 250, 58, 83, 55, 241, 7, 33, 51, 160, 199, 188, 190, 198, 148, 219, 62, 63, 105, 31, 0, 89, 186, 56, 127, 79, 59, 165, 53, 222, 146, 198, 190, 180, 26, 11, 190, 198, 148, 219, 62, 63, 105, 31, 0, 99, 186, 35, 127, 43, 59, 213, 53, 254, 228, 50, 191, 46, 163, 122, 190, 104, 109, 183, 63, 63, 105, 31, 0, 79, 188, 70, 127, 250, 58, 83, 55, 120, 132, 6, 52, 162, 54, 42, 191, 104, 109, 183, 63, 63, 105, 31, 0, 70, 190, 81, 127, 252, 59, 147, 54, 116, 79, 21, 192, 109, 117, 101, 62, 26, 10, 161, 63, 254, 126, 252, 0, 133, 253, 226, 127, 251, 56, 85, 35, 103, 254, 151, 191, 76, 60, 136, 62, 24, 10, 161, 63, 254, 126, 252, 0, 133, 253, 226, 127, 253, 54, 194, 43, 231, 135, 198, 190, 237, 83, 93, 62, 198, 148, 219, 62, 58, 150, 36, 0, 60, 252, 145, 127, 11, 59, 174, 53, 241, 7, 33, 51, 119, 48, 220, 62, 198, 148, 219, 62, 58, 150, 36, 0, 88, 18, 168, 127, 20, 59, 85, 53, 120, 132, 6, 52, 146, 73, 70, 63, 104, 109, 183, 63, 58, 150, 36, 0, 30, 232, 136, 127, 106, 58, 109, 52, 134, 186, 50, 191, 113, 64, 199, 62, 104, 109, 183, 63, 58, 150, 36, 0, 6, 219, 135, 127, 95, 58, 103, 54, 148, 107, 144, 191, 58, 249, 109, 190, 24, 10, 161, 63, 237, 131, 250, 0, 248, 252, 126, 127, 169, 54, 11, 58, 116, 79, 21, 192, 8, 167, 138, 188, 26, 10, 161, 63, 237, 131, 250, 0, 249, 252, 126, 127, 180, 54, 123, 57, 194, 50, 236, 51, 221, 107, 128, 63, 24, 10, 161, 63, 0, 122, 224, 0, 126, 0, 254, 127, 97, 51, 80, 57, 117, 59, 45, 52, 68, 163, 205, 62, 252, 55, 236, 63, 196, 109, 25, 0, 83, 25, 91, 127, 223, 49, 253, 57, 129, 109, 185, 190, 96, 184, 78, 62, 252, 55, 236, 63, 196, 109, 25, 0, 70, 14, 104, 127, 16, 49, 64, 58, 140, 122, 162, 190, 206, 34, 53, 62, 44, 11, 7, 64, 196, 109, 20, 0, 80, 26, 94, 127, 168, 49, 89, 58, 233, 17, 70, 52, 254, 47, 180, 62, 44, 11, 7, 64, 196, 109, 20, 0, 97, 40, 70, 127, 133, 50, 46, 58, 231, 135, 198, 190, 237, 83, 93, 62, 198, 148, 219, 62, 130, 0, 249, 0, 249, 11, 126, 127, 246, 37, 1, 58, 222, 146, 198, 190, 180, 26, 11, 190, 198, 148, 219, 62, 130, 0, 249, 0, 249, 6, 126, 127, 46, 37, 81, 58, 147, 46, 218, 190, 27, 215, 24, 190, 240, 156, 134, 63, 132, 0, 233, 0, 233, 5, 124, 127, 98, 45, 92, 58, 147, 46, 218, 190, 68, 60, 115, 62, 240, 156, 134, 63, 132, 0, 232, 0, 233, 28, 121, 127, 177, 45, 16, 58, 222, 146, 198, 190, 180, 26, 11, 190, 198, 148, 219, 62, 191, 148, 250, 0, 249, 254, 126, 127, 46, 37, 81, 58, 241, 7, 33, 51, 160, 199, 188, 190, 198, 148, 219, 62, 191, 148, 250, 0, 0, 249, 126, 127, 19, 37, 182, 58, 59, 112, 197, 51, 97, 94, 207, 190, 240, 156, 134, 63, 192, 149, 237, 0, 251, 237, 125, 127, 75, 45, 182, 58, 147, 46, 218, 190, 27, 215, 24, 190, 240, 156, 134, 63, 192, 149, 237, 0, 229, 250, 123, 127, 98, 45, 92, 58, 140, 122, 162, 190, 112, 163, 227, 189, 44, 11, 7, 64, 0, 0, 127, 0, 87, 92, 0, 127, 96, 49, 129, 58, 233, 17, 70, 52, 28, 109, 154, 190, 44, 11, 7, 64, 0, 0, 127, 0, 0, 127, 0, 127, 71, 49, 182, 58, 233, 17, 70, 52, 239, 16, 106, 190, 44, 11, 7, 64, 0, 0, 127, 0, 0, 127, 0, 127, 109, 49, 182, 58, 122, 69, 118, 190, 124, 132, 172, 189, 44, 11, 7, 64, 0, 0, 127, 0, 95, 83, 0, 127, 141, 49, 135, 58, 129, 109, 185, 190, 96, 184, 78, 62, 252, 55, 236, 63, 132, 0, 25, 0, 24, 47, 115, 127, 16, 49, 64, 58, 129, 109, 185, 190, 59, 229, 1, 190, 252, 55, 236, 63, 132, 0, 25, 0, 24, 42, 117, 127, 191, 48, 116, 58, 140, 122, 162, 190, 112, 163, 227, 189, 44, 11, 7, 64, 131, 0, 21, 0, 19, 51, 114, 127, 96, 49, 129, 58, 140, 122, 162, 190, 206, 34, 53, 62, 44, 11, 7, 64, 131, 0, 21, 0, 18, 60, 109, 127, 168, 49, 89, 58, 129, 109, 185, 190, 59, 229, 1, 190, 252, 55, 236, 63, 192, 149, 21, 0, 254, 26, 124, 127, 191, 48, 116, 58, 117, 59, 45, 52, 230, 60, 176, 190, 252, 55, 236, 63, 192, 149, 21, 0, 0, 24, 124, 127, 156, 48, 182, 58, 233, 17, 70, 52, 28, 109, 154, 190, 44, 11, 7, 64, 192, 149, 17, 0, 251, 23, 124, 127, 71, 49, 182, 58, 140, 122, 162, 190, 112, 163, 227, 189, 44, 11, 7, 64, 192, 149, 17, 0, 240, 29, 122, 127, 96, 49, 129, 58, 34, 29, 247, 51, 151, 209, 247, 190, 75, 123, 168, 63, 191, 148, 0, 0, 248, 4, 126, 127, 163, 46, 182, 58, 224, 94, 2, 191, 94, 167, 54, 190, 75, 123, 168, 63, 191, 148, 0, 0, 237, 11, 124, 127, 220, 46, 96, 58, 3, 101, 20, 52, 100, 94, 207, 190, 164, 89, 202, 63, 193, 150, 28, 0, 2, 31, 122, 127, 233, 47, 182, 58, 145, 46, 218, 190, 28, 215, 24, 190, 164, 89, 202, 63, 193, 150, 28, 0, 8, 27, 123, 127, 22, 48, 106, 58, 224, 94, 2, 191, 94, 167, 54, 190, 75, 123, 168, 63, 129, 0, 0, 0, 0, 31, 122, 127, 220, 46, 96, 58, 224, 94, 2, 191, 67, 87, 145, 62, 75, 123, 168, 63, 129, 0, 0, 0, 0, 44, 119, 127, 84, 47, 29, 58, 145, 46, 218, 190, 28, 215, 24, 190, 164, 89, 202, 63, 134, 0, 34, 0, 32, 36, 117, 127, 22, 48, 106, 58, 145, 46, 218, 190, 71, 60, 115, 62, 164, 89, 202, 63, 134, 0, 34, 0, 33, 30, 118, 127, 97, 48, 44, 58, 224, 94, 2, 191, 67, 87, 145, 62, 75, 123, 168, 63, 195, 111, 0, 0, 31, 17, 121, 127, 84, 47, 29, 58, 34, 29, 247, 51, 110, 148, 16, 63, 75, 123, 168, 63, 195, 111, 0, 0, 43, 23, 117, 127, 68, 48, 174, 57, 145, 46, 218, 190, 71, 60, 115, 62, 164, 89, 202, 63, 197, 107, 33, 0, 65, 2, 108, 127, 97, 48, 44, 58, 3, 101, 20, 52, 55, 246, 241, 62, 164, 89, 202, 63, 197, 107, 33, 0, 72, 7, 103, 127, 31, 49, 211, 57, 233, 17, 70, 52, 115, 142, 136, 62, 44, 11, 7, 64, 61, 145, 0, 0, 214, 233, 117, 127, 42, 59, 243, 59, 122, 69, 118, 190, 119, 70, 9, 62, 44, 11, 7, 64, 61, 145, 0, 0, 226, 240, 122, 127, 205, 59, 168, 59, 128, 69, 118, 190, 119, 70, 9, 62, 152, 202, 132, 63, 61, 145, 0, 0, 166, 206, 73, 127, 111, 59, 86, 59, 61, 196, 194, 51, 115, 142, 136, 62, 152, 202, 132, 63, 61, 145, 0, 0, 159, 203, 60, 127, 71, 59, 105, 59, 233, 17, 70, 52, 254, 47, 180, 62, 44, 11, 7, 64, 0, 0, 126, 0, 125, 241, 0, 127, 133, 50, 46, 58, 140, 122, 162, 190, 206, 34, 53, 62, 44, 11, 7, 64, 0, 0, 127, 0, 125, 19, 0, 127, 168, 49, 89, 58, 122, 69, 118, 190, 119, 70, 9, 62, 44, 11, 7, 64, 0, 0, 127, 0, 126, 8, 0, 127, 219, 49, 98, 58, 233, 17, 70, 52, 115, 142, 136, 62, 44, 11, 7, 64, 0, 0, 127, 0, 125, 237, 0, 127, 144, 50, 63, 58, 61, 196, 194, 51, 239, 16, 106, 190, 152, 202, 132, 63, 0, 0, 127, 0, 130, 244, 0, 127, 84, 59, 23, 59, 61, 196, 194, 51, 115, 142, 136, 62, 152, 202, 132, 63, 0, 0, 127, 0, 130, 246, 0, 127, 71, 59, 105, 59, 128, 69, 118, 190, 119, 70, 9, 62, 152, 202, 132, 63, 0, 0, 127, 0, 130, 244, 0, 127, 111, 59, 86, 59, 128, 69, 118, 190, 124, 132, 172, 189, 152, 202, 132, 63, 0, 0, 127, 0, 132, 233, 0, 127, 115, 59, 52, 59, 122, 69, 118, 190, 119, 70, 9, 62, 44, 11, 7, 64, 126, 0, 0, 0, 0, 0, 126, 127, 205, 59, 168, 59, 122, 69, 118, 190, 124, 132, 172, 189, 44, 11, 7, 64, 126, 0, 0, 0, 0, 9, 126, 127, 228, 59, 244, 58, 128, 69, 118, 190, 124, 132, 172, 189, 152, 202, 132, 63, 126, 0, 0, 0, 0, 207, 117, 127, 115, 59, 52, 59, 128, 69, 118, 190, 119, 70, 9, 62, 152, 202, 132, 63, 126, 0, 0, 0, 0, 200, 113, 127, 111, 59, 86, 59, 122, 69, 118, 190, 124, 132, 172, 189, 44, 11, 7, 64, 65, 108, 0, 0, 216, 24, 117, 127, 228, 59, 244, 58, 233, 17, 70, 52, 239, 16, 106, 190, 44, 11, 7, 64, 65, 108, 0, 0, 219, 22, 119, 127, 98, 59, 159, 58, 61, 196, 194, 51, 239, 16, 106, 190, 152, 202, 132, 63, 65, 108, 0, 0, 204, 31, 111, 127, 84, 59, 23, 59, 128, 69, 118, 190, 124, 132, 172, 189, 152, 202, 132, 63, 65, 108, 0, 0, 202, 32, 109, 127, 115, 59, 52, 59, 208, 242, 241, 191, 32, 100, 33, 61, 157, 181, 52, 63, 63, 109, 0, 0, 0, 0, 129, 127, 117, 58, 134, 56, 208, 242, 241, 191, 16, 100, 33, 61, 47, 165, 165, 191, 63, 109, 0, 0, 0, 0, 130, 127, 245, 59, 134, 56, 249, 45, 0, 192, 192, 208, 213, 61, 50, 165, 165, 191, 63, 109, 0, 0, 0, 0, 129, 127, 245, 59, 109, 56, 249, 45, 0, 192, 208, 208, 213, 61, 157, 181, 52, 63, 63, 109, 0, 0, 0, 0, 129, 127, 117, 58, 109, 56, 208, 242, 241, 191, 104, 139, 185, 189, 50, 165, 165, 191, 0, 0, 129, 0, 193, 147, 0, 127, 26, 59, 245, 55, 249, 45, 0, 192, 20, 85, 31, 190, 50, 165, 165, 191, 0, 0, 129, 0, 193, 147, 0, 127, 48, 59, 220, 55, 138, 98, 7, 192, 104, 139, 185, 189, 48, 165, 165, 191, 0, 0, 129, 0, 193, 147, 0, 127, 48, 59, 170, 55, 138, 98, 7, 192, 16, 100, 33, 61, 47, 165, 165, 191, 0, 0, 129, 0, 193, 147, 0, 127, 26, 59, 145, 55, 249, 45, 0, 192, 192, 208, 213, 61, 50, 165, 165, 191, 0, 0, 129, 0, 193, 147, 0, 127, 4, 59, 170, 55, 208, 242, 241, 191, 16, 100, 33, 61, 47, 165, 165, 191, 0, 0, 129, 0, 193, 147, 0, 127, 4, 59, 220, 55, 249, 45, 0, 192, 8, 85, 31, 190, 157, 181, 52, 63, 0, 0, 127, 0, 129, 0, 0, 127, 70, 59, 145, 55, 208, 242, 241, 191, 88, 139, 185, 189, 158, 181, 52, 63, 0, 0, 127, 0, 129, 0, 0, 127, 49, 59, 170, 55, 208, 242, 241, 191, 32, 100, 33, 61, 157, 181, 52, 63, 0, 0, 127, 0, 129, 0, 0, 127, 49, 59, 220, 55, 249, 45, 0, 192, 208, 208, 213, 61, 157, 181, 52, 63, 0, 0, 127, 0, 129, 0, 0, 127, 70, 59, 245, 55, 138, 98, 7, 192, 64, 100, 33, 61, 157, 181, 52, 63, 0, 0, 127, 0, 129, 0, 0, 127, 92, 59, 220, 55, 138, 98, 7, 192, 88, 139, 185, 189, 157, 181, 52, 63, 0, 0, 127, 0, 129, 0, 0, 127, 92, 59, 170, 55, 249, 45, 0, 192, 8, 85, 31, 190, 157, 181, 52, 63, 63, 147, 0, 0, 0, 0, 130, 127, 117, 58, 34, 56, 249, 45, 0, 192, 20, 85, 31, 190, 50, 165, 165, 191, 63, 147, 0, 0, 0, 0, 129, 127, 245, 59, 34, 56, 208, 242, 241, 191, 104, 139, 185, 189, 50, 165, 165, 191, 63, 147, 0, 0, 0, 0, 129, 127, 245, 59, 9, 56, 208, 242, 241, 191, 88, 139, 185, 189, 158, 181, 52, 63, 63, 147, 0, 0, 0, 0, 130, 127, 117, 58, 9, 56, 138, 98, 7, 192, 64, 100, 33, 61, 157, 181, 52, 63, 129, 0, 0, 0, 0, 0, 130, 127, 117, 58, 84, 56, 138, 98, 7, 192, 16, 100, 33, 61, 47, 165, 165, 191, 129, 0, 0, 0, 0, 0, 129, 127, 245, 59, 84, 56, 138, 98, 7, 192, 104, 139, 185, 189, 48, 165, 165, 191, 129, 0, 0, 0, 0, 0, 129, 127, 245, 59, 59, 56, 138, 98, 7, 192, 88, 139, 185, 189, 157, 181, 52, 63, 129, 0, 0, 0, 0, 0, 129, 127, 117, 58, 59, 56, 208, 242, 241, 191, 88, 139, 185, 189, 158, 181, 52, 63, 127, 0, 0, 0, 0, 0, 129, 127, 117, 58, 159, 56, 208, 242, 241, 191, 104, 139, 185, 189, 50, 165, 165, 191, 127, 0, 0, 0, 0, 0, 129, 127, 245, 59, 159, 56, 208, 242, 241, 191, 16, 100, 33, 61, 47, 165, 165, 191, 127, 0, 0, 0, 0, 0, 129, 127, 245, 59, 134, 56, 208, 242, 241, 191, 32, 100, 33, 61, 157, 181, 52, 63, 127, 0, 0, 0, 0, 0, 129, 127, 117, 58, 134, 56, 138, 98, 7, 192, 88, 139, 185, 189, 157, 181, 52, 63, 193, 147, 0, 0, 0, 0, 130, 127, 117, 58, 59, 56, 138, 98, 7, 192, 104, 139, 185, 189, 48, 165, 165, 191, 193, 147, 0, 0, 0, 0, 129, 127, 245, 59, 59, 56, 249, 45, 0, 192, 20, 85, 31, 190, 50, 165, 165, 191, 193, 147, 0, 0, 0, 0, 129, 127, 245, 59, 34, 56, 249, 45, 0, 192, 8, 85, 31, 190, 157, 181, 52, 63, 193, 147, 0, 0, 0, 0, 129, 127, 117, 58, 34, 56, 249, 45, 0, 192, 208, 208, 213, 61, 157, 181, 52, 63, 193, 109, 0, 0, 0, 0, 130, 127, 117, 58, 109, 56, 249, 45, 0, 192, 192, 208, 213, 61, 50, 165, 165, 191, 193, 109, 0, 0, 0, 0, 129, 127, 245, 59, 109, 56, 138, 98, 7, 192, 16, 100, 33, 61, 47, 165, 165, 191, 193, 109, 0, 0, 0, 0, 129, 127, 245, 59, 84, 56, 138, 98, 7, 192, 64, 100, 33, 61, 157, 181, 52, 63, 193, 109, 0, 0, 0, 0, 129, 127, 117, 58, 84, 56, 246, 159, 155, 191, 32, 100, 33, 61, 138, 185, 78, 63, 63, 109, 0, 0, 0, 0, 127, 127, 247, 59, 99, 57, 246, 159, 155, 191, 16, 100, 33, 61, 58, 163, 152, 191, 63, 109, 0, 0, 0, 0, 127, 127, 118, 58, 99, 57, 24, 9, 170, 191, 192, 208, 213, 61, 58, 163, 152, 191, 63, 109, 0, 0, 0, 0, 127, 127, 118, 58, 124, 57, 24, 9, 170, 191, 208, 208, 213, 61, 138, 185, 78, 63, 63, 109, 0, 0, 0, 0, 127, 127, 247, 59, 124, 57, 246, 159, 155, 191, 104, 139, 185, 189, 58, 163, 152, 191, 0, 0, 129, 0, 63, 109, 0, 127, 191, 58, 149, 55, 24, 9, 170, 191, 20, 85, 31, 190, 58, 163, 152, 191, 0, 0, 129, 0, 63, 109, 0, 127, 170, 58, 174, 55, 58, 114, 184, 191, 104, 139, 185, 189, 58, 163, 152, 191, 0, 0, 129, 0, 63, 109, 0, 127, 170, 58, 224, 55, 58, 114, 184, 191, 16, 100, 33, 61, 58, 163, 152, 191, 0, 0, 129, 0, 63, 109, 0, 127, 191, 58, 249, 55, 24, 9, 170, 191, 192, 208, 213, 61, 58, 163, 152, 191, 0, 0, 129, 0, 63, 109, 0, 127, 213, 58, 224, 55, 246, 159, 155, 191, 16, 100, 33, 61, 58, 163, 152, 191, 0, 0, 129, 0, 63, 109, 0, 127, 213, 58, 174, 55, 24, 9, 170, 191, 8, 85, 31, 190, 138, 185, 78, 63, 0, 0, 127, 0, 63, 147, 0, 127, 137, 59, 220, 55, 246, 159, 155, 191, 88, 139, 185, 189, 138, 185, 78, 63, 0, 0, 127, 0, 63, 147, 0, 127, 137, 59, 170, 55, 246, 159, 155, 191, 32, 100, 33, 61, 138, 185, 78, 63, 0, 0, 127, 0, 63, 147, 0, 127, 115, 59, 145, 55, 24, 9, 170, 191, 208, 208, 213, 61, 138, 185, 78, 63, 0, 0, 127, 0, 63, 147, 0, 127, 93, 59, 170, 55, 58, 114, 184, 191, 64, 100, 33, 61, 138, 185, 78, 63, 0, 0, 127, 0, 63, 147, 0, 127, 93, 59, 220, 55, 58, 114, 184, 191, 88, 139, 185, 189, 138, 185, 78, 63, 0, 0, 127, 0, 63, 147, 0, 127, 115, 59, 245, 55, 24, 9, 170, 191, 8, 85, 31, 190, 138, 185, 78, 63, 63, 147, 0, 0, 0, 0, 127, 127, 247, 59, 199, 57, 24, 9, 170, 191, 20, 85, 31, 190, 58, 163, 152, 191, 63, 147, 0, 0, 0, 0, 127, 127, 118, 58, 199, 57, 246, 159, 155, 191, 104, 139, 185, 189, 58, 163, 152, 191, 63, 147, 0, 0, 0, 0, 127, 127, 118, 58, 224, 57, 246, 159, 155, 191, 88, 139, 185, 189, 138, 185, 78, 63, 63, 147, 0, 0, 0, 0, 127, 127, 247, 59, 224, 57, 58, 114, 184, 191, 64, 100, 33, 61, 138, 185, 78, 63, 129, 0, 0, 0, 0, 0, 127, 127, 247, 59, 149, 57, 58, 114, 184, 191, 16, 100, 33, 61, 58, 163, 152, 191, 129, 0, 0, 0, 0, 0, 127, 127, 118, 58, 149, 57, 58, 114, 184, 191, 104, 139, 185, 189, 58, 163, 152, 191, 129, 0, 0, 0, 0, 0, 127, 127, 118, 58, 174, 57, 58, 114, 184, 191, 88, 139, 185, 189, 138, 185, 78, 63, 129, 0, 0, 0, 0, 0, 127, 127, 247, 59, 174, 57, 246, 159, 155, 191, 88, 139, 185, 189, 138, 185, 78, 63, 127, 0, 0, 0, 0, 0, 126, 127, 247, 59, 74, 57, 246, 159, 155, 191, 104, 139, 185, 189, 58, 163, 152, 191, 127, 0, 0, 0, 0, 0, 127, 127, 118, 58, 74, 57, 246, 159, 155, 191, 16, 100, 33, 61, 58, 163, 152, 191, 127, 0, 0, 0, 0, 0, 126, 127, 118, 58, 99, 57, 246, 159, 155, 191, 32, 100, 33, 61, 138, 185, 78, 63, 127, 0, 0, 0, 0, 0, 127, 127, 247, 59, 99, 57, 58, 114, 184, 191, 88, 139, 185, 189, 138, 185, 78, 63, 193, 147, 0, 0, 0, 0, 127, 127, 247, 59, 174, 57, 58, 114, 184, 191, 104, 139, 185, 189, 58, 163, 152, 191, 193, 147, 0, 0, 0, 0, 127, 127, 118, 58, 174, 57, 24, 9, 170, 191, 20, 85, 31, 190, 58, 163, 152, 191, 193, 147, 0, 0, 0, 0, 127, 127, 118, 58, 199, 57, 24, 9, 170, 191, 8, 85, 31, 190, 138, 185, 78, 63, 193, 147, 0, 0, 0, 0, 127, 127, 247, 59, 199, 57, 24, 9, 170, 191, 208, 208, 213, 61, 138, 185, 78, 63, 193, 109, 0, 0, 0, 0, 127, 127, 247, 59, 124, 57, 24, 9, 170, 191, 192, 208, 213, 61, 58, 163, 152, 191, 193, 109, 0, 0, 0, 0, 127, 127, 118, 58, 124, 57, 58, 114, 184, 191, 16, 100, 33, 61, 58, 163, 152, 191, 193, 109, 0, 0, 0, 0, 127, 127, 118, 58, 149, 57, 58, 114, 184, 191, 64, 100, 33, 61, 138, 185, 78, 63, 193, 109, 0, 0, 0, 0, 127, 127, 247, 59, 149, 57, 148, 81, 15, 191, 244, 42, 138, 62, 50, 165, 165, 191, 132, 17, 240, 0, 21, 121, 226, 127, 102, 46, 250, 51, 2, 0, 0, 191, 248, 135, 59, 63, 50, 165, 165, 191, 132, 16, 240, 0, 19, 121, 225, 127, 96, 49, 70, 52, 36, 242, 0, 191, 177, 178, 142, 62, 16, 173, 18, 192, 131, 16, 250, 0, 17, 121, 224, 127, 5, 49, 235, 46, 32, 193, 122, 63, 63, 152, 78, 190, 156, 181, 52, 63, 109, 196, 237, 0, 13, 242, 125, 127, 35, 54, 62, 59, 148, 107, 144, 63, 58, 249, 109, 190, 24, 10, 161, 63, 105, 195, 224, 0, 21, 229, 122, 127, 171, 54, 75, 59, 54, 192, 120, 63, 201, 28, 2, 191, 24, 10, 161, 63, 91, 174, 224, 0, 19, 230, 122, 127, 179, 54, 36, 59, 162, 35, 86, 63, 73, 4, 224, 190, 156, 181, 52, 63, 93, 172, 238, 0, 11, 242, 125, 127, 40, 54, 27, 59, 117, 53, 133, 63, 212, 203, 110, 62, 154, 181, 52, 63, 2, 126, 254, 0, 133, 2, 30, 129, 194, 57, 233, 56, 54, 101, 119, 63, 108, 117, 101, 62, 212, 108, 128, 191, 10, 126, 0, 0, 134, 10, 30, 129, 77, 57, 88, 53, 144, 81, 15, 63, 244, 42, 138, 62, 50, 165, 165, 191, 14, 126, 0, 0, 134, 13, 31, 129, 189, 57, 86, 52, 204, 94, 6, 63, 84, 7, 41, 191, 156, 181, 52, 63, 49, 141, 240, 0, 7, 241, 125, 127, 43, 54, 235, 58, 189, 34, 6, 63, 57, 133, 68, 63, 156, 181, 52, 63, 46, 116, 238, 0, 118, 210, 0, 127, 25, 53, 152, 56, 252, 255, 255, 62, 248, 135, 59, 63, 50, 165, 165, 191, 24, 122, 231, 0, 124, 231, 255, 127, 3, 53, 84, 52, 28, 242, 0, 63, 177, 178, 142, 62, 16, 173, 18, 192, 22, 115, 208, 0, 124, 233, 2, 127, 27, 53, 17, 47, 28, 242, 0, 63, 177, 178, 142, 62, 16, 173, 18, 192, 13, 126, 0, 0, 134, 13, 32, 129, 129, 57, 15, 47, 67, 201, 110, 63, 64, 225, 248, 62, 156, 181, 52, 63, 98, 75, 231, 0, 78, 157, 8, 127, 88, 54, 149, 56, 194, 2, 27, 63, 174, 26, 99, 63, 24, 10, 161, 63, 47, 113, 224, 0, 117, 207, 0, 127, 44, 53, 82, 57, 98, 78, 137, 63, 58, 28, 15, 63, 24, 10, 161, 63, 96, 75, 222, 0, 80, 159, 9, 127, 134, 54, 80, 57, 0, 200, 27, 63, 77, 246, 67, 191, 24, 10, 161, 63, 50, 144, 226, 0, 12, 229, 123, 127, 180, 54, 240, 58, 241, 7, 33, 51, 119, 48, 220, 62, 198, 148, 219, 62, 61, 111, 249, 0, 249, 12, 126, 127, 161, 39, 211, 59, 59, 112, 197, 51, 54, 246, 241, 62, 240, 156, 134, 63, 60, 109, 233, 0, 248, 30, 122, 127, 124, 46, 197, 59, 151, 46, 218, 62, 68, 60, 115, 62, 240, 156, 134, 63, 60, 109, 233, 0, 3, 24, 124, 127, 177, 45, 93, 59, 235, 135, 198, 62, 237, 83, 93, 62, 198, 148, 219, 62, 61, 111, 249, 0, 253, 10, 126, 127, 246, 37, 108, 59, 92, 26, 103, 63, 76, 126, 69, 190, 212, 108, 128, 191, 117, 213, 234, 0, 42, 119, 246, 127, 249, 57, 180, 53, 28, 242, 0, 63, 26, 85, 51, 190, 16, 173, 18, 192, 117, 234, 214, 0, 21, 125, 249, 127, 253, 57, 186, 55, 28, 242, 0, 63, 177, 178, 142, 62, 16, 173, 18, 192, 120, 248, 216, 0, 8, 126, 254, 127, 84, 58, 186, 55, 54, 101, 119, 63, 108, 117, 101, 62, 212, 108, 128, 191, 120, 248, 216, 0, 8, 126, 254, 127, 74, 58, 172, 53, 28, 242, 0, 63, 26, 85, 51, 190, 16, 173, 18, 192, 28, 142, 208, 0, 254, 207, 116, 127, 247, 49, 242, 58, 28, 242, 0, 63, 26, 85, 51, 190, 16, 173, 18, 192, 60, 0, 145, 0, 0, 127, 0, 127, 253, 57, 186, 55, 171, 175, 112, 180, 88, 32, 91, 190, 107, 25, 36, 192, 60, 0, 145, 0, 0, 127, 0, 127, 246, 57, 75, 56, 171, 175, 112, 180, 2, 39, 150, 62, 107, 25, 36, 192, 60, 0, 145, 0, 0, 127, 0, 127, 87, 58, 75, 56, 28, 242, 0, 63, 177, 178, 142, 62, 16, 173, 18, 192, 60, 0, 145, 0, 0, 127, 0, 127, 84, 58, 186, 55, 92, 26, 103, 63, 76, 126, 69, 190, 212, 108, 128, 191, 117, 213, 234, 0, 22, 251, 124, 127, 119, 52, 63, 59, 116, 79, 21, 64, 109, 117, 101, 62, 152, 181, 52, 63, 1, 126, 254, 0, 133, 2, 30, 129, 21, 56, 85, 57, 157, 207, 1, 64, 109, 117, 101, 62, 152, 108, 3, 191, 0, 126, 0, 0, 133, 0, 30, 129, 21, 56, 78, 55, 107, 254, 151, 63, 76, 60, 136, 62, 24, 10, 161, 63, 113, 46, 223, 0, 51, 141, 14, 127, 66, 55, 67, 57, 117, 53, 133, 63, 212, 203, 110, 62, 154, 181, 52, 63, 113, 47, 226, 0, 51, 141, 11, 127, 255, 54, 141, 56, 116, 79, 21, 64, 8, 167, 138, 188, 152, 181, 52, 63, 126, 0, 241, 0, 1, 126, 11, 127, 69, 58, 5, 48, 157, 207, 1, 64, 8, 167, 138, 188, 152, 108, 3, 191, 123, 0, 226, 0, 2, 126, 11, 127, 48, 58, 200, 51, 157, 207, 1, 64, 109, 117, 101, 62, 152, 108, 3, 191, 123, 0, 226, 0, 2, 126, 11, 127, 94, 58, 217, 51, 116, 79, 21, 64, 109, 117, 101, 62, 152, 181, 52, 63, 126, 0, 241, 0, 1, 126, 11, 127, 116, 58, 22, 48, 92, 26, 103, 63, 76, 126, 69, 190, 212, 108, 128, 191, 18, 131, 254, 0, 7, 255, 126, 127, 119, 52, 63, 59, 157, 207, 1, 64, 8, 167, 138, 188, 152, 108, 3, 191, 18, 131, 254, 0, 8, 255, 126, 127, 252, 52, 204, 59, 116, 79, 21, 64, 8, 167, 138, 188, 152, 181, 52, 63, 19, 131, 252, 0, 7, 253, 126, 127, 48, 54, 232, 59, 32, 193, 122, 63, 63, 152, 78, 190, 156, 181, 52, 63, 19, 131, 252, 0, 7, 253, 126, 127, 35, 54, 62, 59, 54, 101, 119, 63, 108, 117, 101, 62, 212, 108, 128, 191, 52, 251, 141, 0, 12, 126, 0, 127, 74, 58, 172, 53, 157, 207, 1, 64, 109, 117, 101, 62, 152, 108, 3, 191, 52, 251, 141, 0, 12, 126, 0, 127, 94, 58, 217, 51, 157, 207, 1, 64, 8, 167, 138, 188, 152, 108, 3, 191, 52, 251, 141, 0, 12, 126, 0, 127, 48, 58, 200, 51, 92, 26, 103, 63, 76, 126, 69, 190, 212, 108, 128, 191, 52, 251, 141, 0, 12, 126, 0, 127, 249, 57, 180, 53, 116, 79, 21, 64, 109, 117, 101, 62, 22, 10, 161, 63, 127, 0, 0, 0, 0, 126, 11, 127, 125, 58, 222, 44, 116, 79, 21, 64, 8, 167, 138, 188, 22, 10, 161, 63, 127, 0, 0, 0, 0, 126, 11, 127, 79, 58, 189, 44, 138, 186, 50, 63, 113, 64, 199, 62, 104, 109, 183, 63, 37, 28, 118, 0, 121, 249, 220, 127, 55, 57, 51, 59, 107, 254, 151, 63, 76, 60, 136, 62, 24, 10, 161, 63, 26, 7, 123, 0, 124, 250, 230, 127, 128, 57, 65, 59, 98, 78, 137, 63, 58, 28, 15, 63, 24, 10, 161, 63, 37, 35, 115, 0, 121, 250, 219, 127, 109, 57, 20, 59, 194, 2, 27, 63, 174, 26, 99, 63, 24, 10, 161, 63, 26, 50, 113, 0, 124, 249, 231, 127, 41, 57, 227, 58, 0, 200, 27, 63, 77, 246, 67, 191, 24, 10, 161, 63, 27, 207, 113, 0, 123, 0, 226, 127, 59, 57, 217, 59, 2, 229, 50, 63, 46, 163, 122, 190, 104, 109, 183, 63, 38, 228, 117, 0, 120, 255, 217, 127, 61, 57, 140, 59, 54, 192, 120, 63, 201, 28, 2, 191, 24, 10, 161, 63, 38, 219, 115, 0, 121, 6, 219, 127, 107, 57, 179, 59, 148, 107, 144, 63, 58, 249, 109, 190, 24, 10, 161, 63, 29, 245, 123, 0, 123, 254, 227, 127, 125, 57, 138, 59, 116, 79, 21, 64, 8, 167, 138, 188, 22, 10, 161, 63, 0, 0, 127, 0, 126, 250, 0, 127, 40, 58, 97, 59, 116, 79, 21, 64, 109, 117, 101, 62, 22, 10, 161, 63, 0, 0, 127, 0, 126, 250, 0, 127, 38, 58, 60, 59, 222, 146, 198, 62, 180, 26, 11, 190, 198, 148, 219, 62, 135, 0, 37, 0, 19, 149, 64, 127, 89, 59, 81, 53, 2, 229, 50, 63, 46, 163, 122, 190, 104, 109, 183, 63, 135, 0, 37, 0, 29, 178, 95, 127, 252, 59, 105, 52, 138, 186, 50, 63, 113, 64, 199, 62, 104, 109, 183, 63, 135, 0, 37, 0, 26, 168, 86, 127, 83, 59, 55, 51, 235, 135, 198, 62, 237, 83, 93, 62, 198, 148, 219, 62, 135, 0, 37, 0, 14, 139, 45, 127, 59, 59, 32, 53, 241, 7, 33, 51, 160, 199, 188, 190, 198, 148, 219, 62, 193, 105, 31, 0, 230, 207, 113, 127, 79, 59, 165, 53, 120, 132, 6, 52, 162, 54, 42, 191, 104, 109, 183, 63, 193, 105, 31, 0, 36, 243, 120, 127, 252, 59, 147, 54, 2, 229, 50, 63, 46, 163, 122, 190, 104, 109, 183, 63, 193, 105, 31, 0, 9, 226, 122, 127, 252, 59, 105, 52, 222, 146, 198, 62, 180, 26, 11, 190, 198, 148, 219, 62, 193, 105, 31, 0, 191, 191, 86, 127, 89, 59, 81, 53, 107, 254, 151, 63, 76, 60, 136, 62, 24, 10, 161, 63, 2, 126, 252, 0, 133, 3, 30, 129, 192, 57, 175, 57, 116, 79, 21, 64, 109, 117, 101, 62, 22, 10, 161, 63, 2, 126, 252, 0, 133, 3, 30, 129, 67, 56, 13, 58, 235, 135, 198, 62, 237, 83, 93, 62, 198, 148, 219, 62, 198, 150, 36, 0, 85, 187, 193, 127, 59, 59, 32, 53, 138, 186, 50, 63, 113, 64, 199, 62, 104, 109, 183, 63, 198, 150, 36, 0, 75, 189, 180, 127, 83, 59, 55, 51, 120, 132, 6, 52, 146, 73, 70, 63, 104, 109, 183, 63, 198, 150, 36, 0, 79, 188, 185, 127, 106, 58, 109, 52, 241, 7, 33, 51, 119, 48, 220, 62, 198, 148, 219, 62, 198, 150, 36, 0, 91, 187, 202, 127, 20, 59, 85, 53, 116, 79, 21, 64, 8, 167, 138, 188, 22, 10, 161, 63, 19, 131, 250, 0, 8, 252, 126, 127, 183, 54, 228, 59, 148, 107, 144, 63, 58, 249, 109, 190, 24, 10, 161, 63, 19, 131, 250, 0, 8, 252, 126, 127, 171, 54, 75, 59, 117, 59, 45, 52, 68, 163, 205, 62, 252, 55, 236, 63, 60, 109, 25, 0, 173, 25, 91, 127, 223, 49, 112, 59, 233, 17, 70, 52, 254, 47, 180, 62, 44, 11, 7, 64, 60, 109, 20, 0, 159, 40, 70, 127, 133, 50, 63, 59, 152, 122, 162, 62, 206, 34, 53, 62, 44, 11, 7, 64, 60, 109, 20, 0, 176, 26, 94, 127, 168, 49, 20, 59, 141, 109, 185, 62, 96, 184, 78, 62, 252, 55, 236, 63, 60, 109, 25, 0, 186, 14, 104, 127, 16, 49, 44, 59, 235, 135, 198, 62, 237, 83, 93, 62, 198, 148, 219, 62, 126, 0, 249, 0, 7, 11, 126, 127, 246, 37, 108, 59, 151, 46, 218, 62, 68, 60, 115, 62, 240, 156, 134, 63, 124, 0, 232, 0, 23, 28, 121, 127, 177, 45, 93, 59, 151, 46, 218, 62, 27, 215, 24, 190, 240, 156, 134, 63, 124, 0, 233, 0, 23, 5, 124, 127, 98, 45, 17, 59, 222, 146, 198, 62, 180, 26, 11, 190, 198, 148, 219, 62, 126, 0, 249, 0, 7, 6, 126, 127, 46, 37, 27, 59, 222, 146, 198, 62, 180, 26, 11, 190, 198, 148, 219, 62, 65, 148, 250, 0, 7, 254, 126, 127, 46, 37, 27, 59, 151, 46, 218, 62, 27, 215, 24, 190, 240, 156, 134, 63, 64, 149, 237, 0, 27, 250, 123, 127, 98, 45, 17, 59, 59, 112, 197, 51, 97, 94, 207, 190, 240, 156, 134, 63, 64, 149, 237, 0, 5, 237, 125, 127, 75, 45, 182, 58, 241, 7, 33, 51, 160, 199, 188, 190, 198, 148, 219, 62, 65, 148, 250, 0, 0, 249, 126, 127, 19, 37, 182, 58, 152, 122, 162, 62, 112, 163, 227, 189, 44, 11, 7, 64, 0, 0, 127, 0, 169, 92, 0, 127, 96, 49, 235, 58, 146, 69, 118, 62, 124, 132, 172, 189, 44, 11, 7, 64, 0, 0, 127, 0, 161, 83, 0, 127, 141, 49, 229, 58, 141, 109, 185, 62, 96, 184, 78, 62, 252, 55, 236, 63, 124, 0, 25, 0, 232, 47, 115, 127, 16, 49, 44, 59, 152, 122, 162, 62, 206, 34, 53, 62, 44, 11, 7, 64, 125, 0, 21, 0, 238, 60, 109, 127, 168, 49, 20, 59, 152, 122, 162, 62, 112, 163, 227, 189, 44, 11, 7, 64, 125, 0, 21, 0, 237, 51, 114, 127, 96, 49, 235, 58, 141, 109, 185, 62, 59, 229, 1, 190, 252, 55, 236, 63, 124, 0, 25, 0, 232, 42, 117, 127, 191, 48, 249, 58, 141, 109, 185, 62, 59, 229, 1, 190, 252, 55, 236, 63, 64, 149, 21, 0, 2, 26, 124, 127, 191, 48, 249, 58, 152, 122, 162, 62, 112, 163, 227, 189, 44, 11, 7, 64, 64, 149, 17, 0, 16, 29, 122, 127, 96, 49, 235, 58, 233, 17, 70, 52, 28, 109, 154, 190, 44, 11, 7, 64, 64, 149, 17, 0, 5, 23, 124, 127, 71, 49, 182, 58, 117, 59, 45, 52, 230, 60, 176, 190, 252, 55, 236, 63, 64, 149, 21, 0, 0, 24, 124, 127, 156, 48, 182, 58, 228, 94, 2, 63, 94, 167, 54, 190, 75, 123, 168, 63, 65, 148, 0, 0, 19, 11, 124, 127, 220, 46, 13, 59, 34, 29, 247, 51, 151, 209, 247, 190, 75, 123, 168, 63, 65, 148, 0, 0, 8, 4, 126, 127, 163, 46, 182, 58, 157, 46, 218, 62, 28, 215, 24, 190, 164, 89, 202, 63, 63, 150, 28, 0, 248, 27, 123, 127, 22, 48, 3, 59, 3, 101, 20, 52, 100, 94, 207, 190, 164, 89, 202, 63, 63, 150, 28, 0, 254, 31, 122, 127, 233, 47, 182, 58, 228, 94, 2, 63, 67, 87, 145, 62, 75, 123, 168, 63, 127, 0, 0, 0, 0, 44, 119, 127, 84, 47, 80, 59, 228, 94, 2, 63, 94, 167, 54, 190, 75, 123, 168, 63, 127, 0, 0, 0, 0, 31, 122, 127, 220, 46, 13, 59, 157, 46, 218, 62, 71, 60, 115, 62, 164, 89, 202, 63, 122, 0, 34, 0, 223, 30, 118, 127, 97, 48, 65, 59, 157, 46, 218, 62, 28, 215, 24, 190, 164, 89, 202, 63, 122, 0, 34, 0, 224, 36, 117, 127, 22, 48, 3, 59, 34, 29, 247, 51, 110, 148, 16, 63, 75, 123, 168, 63, 61, 111, 0, 0, 213, 23, 117, 127, 68, 48, 191, 59, 228, 94, 2, 63, 67, 87, 145, 62, 75, 123, 168, 63, 61, 111, 0, 0, 225, 17, 121, 127, 84, 47, 80, 59, 3, 101, 20, 52, 55, 246, 241, 62, 164, 89, 202, 63, 59, 107, 33, 0, 184, 7, 103, 127, 31, 49, 154, 59, 157, 46, 218, 62, 71, 60, 115, 62, 164, 89, 202, 63, 59, 107, 33, 0, 191, 2, 108, 127, 97, 48, 65, 59, 233, 17, 70, 52, 115, 142, 136, 62, 44, 11, 7, 64, 195, 145, 0, 0, 234, 12, 132, 127, 42, 59, 243, 59, 61, 196, 194, 51, 115, 142, 136, 62, 152, 202, 132, 63, 195, 145, 0, 0, 166, 49, 182, 127, 71, 59, 105, 59, 140, 69, 118, 62, 119, 70, 9, 62, 152, 202, 132, 63, 195, 145, 0, 0, 175, 44, 170, 127, 39, 59, 79, 59, 146, 69, 118, 62, 119, 70, 9, 62, 44, 11, 7, 64, 195, 145, 0, 0, 248, 4, 130, 127, 174, 58, 115, 59, 233, 17, 70, 52, 254, 47, 180, 62, 44, 11, 7, 64, 0, 0, 126, 0, 131, 241, 0, 127, 133, 50, 63, 59, 233, 17, 70, 52, 115, 142, 136, 62, 44, 11, 7, 64, 0, 0, 127, 0, 131, 237, 0, 127, 144, 50, 46, 59, 146, 69, 118, 62, 119, 70, 9, 62, 44, 11, 7, 64, 0, 0, 127, 0, 130, 8, 0, 127, 219, 49, 11, 59, 152, 122, 162, 62, 206, 34, 53, 62, 44, 11, 7, 64, 0, 0, 127, 0, 131, 19, 0, 127, 168, 49, 20, 59, 140, 69, 118, 62, 124, 132, 172, 189, 152, 202, 132, 63, 0, 0, 127, 0, 130, 250, 0, 127, 42, 59, 44, 59, 140, 69, 118, 62, 119, 70, 9, 62, 152, 202, 132, 63, 0, 0, 127, 0, 130, 246, 0, 127, 39, 59, 79, 59, 146, 69, 118, 62, 119, 70, 9, 62, 44, 11, 7, 64, 130, 0, 0, 0, 0, 248, 130, 127, 174, 58, 115, 59, 140, 69, 118, 62, 119, 70, 9, 62, 152, 202, 132, 63, 130, 0, 0, 0, 0, 26, 132, 127, 39, 59, 79, 59, 140, 69, 118, 62, 124, 132, 172, 189, 152, 202, 132, 63, 130, 0, 0, 0, 0, 21, 131, 127, 42, 59, 44, 59, 146, 69, 118, 62, 124, 132, 172, 189, 44, 11, 7, 64, 130, 0, 0, 0, 0, 243, 130, 127, 202, 58, 226, 58, 146, 69, 118, 62, 124, 132, 172, 189, 44, 11, 7, 64, 191, 108, 0, 0, 205, 226, 144, 127, 202, 58, 226, 58, 140, 69, 118, 62, 124, 132, 172, 189, 152, 202, 132, 63, 191, 108, 0, 0, 183, 212, 163, 127, 42, 59, 44, 59, 61, 196, 194, 51, 239, 16, 106, 190, 152, 202, 132, 63, 191, 108, 0, 0, 187, 215, 159, 127, 84, 59, 23, 59, 233, 17, 70, 52, 239, 16, 106, 190, 44, 11, 7, 64, 191, 108, 0, 0, 210, 229, 142, 127, 98, 59, 159, 58, 208, 242, 241, 63, 32, 100, 33, 61, 153, 181, 52, 63, 193, 109, 0, 0, 0, 0, 129, 127, 117, 58, 186, 56, 249, 45, 0, 64, 208, 208, 213, 61, 153, 181, 52, 63, 193, 109, 0, 0, 0, 0, 129, 127, 117, 58, 211, 56, 249, 45, 0, 64, 192, 208, 213, 61, 50, 165, 165, 191, 193, 109, 0, 0, 0, 0, 129, 127, 245, 59, 211, 56, 208, 242, 241, 63, 16, 100, 33, 61, 51, 165, 165, 191, 193, 109, 0, 0, 0, 0, 129, 127, 245, 59, 186, 56, 138, 98, 7, 64, 104, 139, 185, 189, 52, 165, 165, 191, 0, 0, 129, 0, 193, 147, 0, 127, 236, 58, 249, 55, 249, 45, 0, 64, 20, 85, 31, 190, 50, 165, 165, 191, 0, 0, 129, 0, 193, 147, 0, 127, 2, 59, 224, 55, 208, 242, 241, 63, 104, 139, 185, 189, 50, 165, 165, 191, 0, 0, 129, 0, 193, 147, 0, 127, 2, 59, 174, 55, 208, 242, 241, 63, 16, 100, 33, 61, 51, 165, 165, 191, 0, 0, 129, 0, 193, 147, 0, 127, 236, 58, 149, 55, 249, 45, 0, 64, 192, 208, 213, 61, 50, 165, 165, 191, 0, 0, 129, 0, 193, 147, 0, 127, 214, 58, 174, 55, 138, 98, 7, 64, 16, 100, 33, 61, 51, 165, 165, 191, 0, 0, 129, 0, 193, 147, 0, 127, 214, 58, 224, 55, 208, 242, 241, 63, 32, 100, 33, 61, 153, 181, 52, 63, 0, 0, 127, 0, 127, 0, 0, 127, 144, 59, 172, 55, 208, 242, 241, 63, 88, 139, 185, 189, 150, 181, 52, 63, 0, 0, 127, 0, 127, 0, 0, 127, 144, 59, 222, 55, 249, 45, 0, 64, 8, 85, 31, 190, 153, 181, 52, 63, 0, 0, 127, 0, 127, 0, 0, 127, 166, 59, 247, 55, 138, 98, 7, 64, 88, 139, 185, 189, 153, 181, 52, 63, 0, 0, 127, 0, 127, 0, 0, 127, 187, 59, 222, 55, 138, 98, 7, 64, 64, 100, 33, 61, 153, 181, 52, 63, 0, 0, 127, 0, 127, 0, 0, 127, 187, 59, 172, 55, 249, 45, 0, 64, 208, 208, 213, 61, 153, 181, 52, 63, 0, 0, 127, 0, 127, 0, 0, 127, 166, 59, 147, 55, 249, 45, 0, 64, 8, 85, 31, 190, 153, 181, 52, 63, 193, 147, 0, 0, 0, 0, 130, 127, 117, 58, 30, 57, 208, 242, 241, 63, 88, 139, 185, 189, 150, 181, 52, 63, 193, 147, 0, 0, 0, 0, 129, 127, 117, 58, 55, 57, 208, 242, 241, 63, 104, 139, 185, 189, 50, 165, 165, 191, 193, 147, 0, 0, 0, 0, 129, 127, 245, 59, 55, 57, 249, 45, 0, 64, 20, 85, 31, 190, 50, 165, 165, 191, 193, 147, 0, 0, 0, 0, 129, 127, 245, 59, 30, 57, 138, 98, 7, 64, 64, 100, 33, 61, 153, 181, 52, 63, 127, 0, 0, 0, 0, 0, 130, 127, 117, 58, 236, 56, 138, 98, 7, 64, 88, 139, 185, 189, 153, 181, 52, 63, 127, 0, 0, 0, 0, 0, 129, 127, 117, 58, 5, 57, 138, 98, 7, 64, 104, 139, 185, 189, 52, 165, 165, 191, 127, 0, 0, 0, 0, 0, 129, 127, 245, 59, 5, 57, 138, 98, 7, 64, 16, 100, 33, 61, 51, 165, 165, 191, 127, 0, 0, 0, 0, 0, 129, 127, 245, 59, 236, 56, 208, 242, 241, 63, 88, 139, 185, 189, 150, 181, 52, 63, 129, 0, 0, 0, 0, 0, 129, 127, 117, 58, 161, 56, 208, 242, 241, 63, 32, 100, 33, 61, 153, 181, 52, 63, 129, 0, 0, 0, 0, 0, 129, 127, 117, 58, 186, 56, 208, 242, 241, 63, 16, 100, 33, 61, 51, 165, 165, 191, 129, 0, 0, 0, 0, 0, 129, 127, 245, 59, 186, 56, 208, 242, 241, 63, 104, 139, 185, 189, 50, 165, 165, 191, 129, 0, 0, 0, 0, 0, 130, 127, 245, 59, 161, 56, 138, 98, 7, 64, 88, 139, 185, 189, 153, 181, 52, 63, 63, 147, 0, 0, 0, 0, 130, 127, 117, 58, 5, 57, 249, 45, 0, 64, 8, 85, 31, 190, 153, 181, 52, 63, 63, 147, 0, 0, 0, 0, 129, 127, 117, 58, 30, 57, 249, 45, 0, 64, 20, 85, 31, 190, 50, 165, 165, 191, 63, 147, 0, 0, 0, 0, 130, 127, 245, 59, 30, 57, 138, 98, 7, 64, 104, 139, 185, 189, 52, 165, 165, 191, 63, 147, 0, 0, 0, 0, 129, 127, 245, 59, 5, 57, 249, 45, 0, 64, 208, 208, 213, 61, 153, 181, 52, 63, 63, 109, 0, 0, 0, 0, 130, 127, 117, 58, 211, 56, 138, 98, 7, 64, 64, 100, 33, 61, 153, 181, 52, 63, 63, 109, 0, 0, 0, 0, 129, 127, 117, 58, 236, 56, 138, 98, 7, 64, 16, 100, 33, 61, 51, 165, 165, 191, 63, 109, 0, 0, 0, 0, 129, 127, 245, 59, 236, 56, 249, 45, 0, 64, 192, 208, 213, 61, 50, 165, 165, 191, 63, 109, 0, 0, 0, 0, 129, 127, 245, 59, 211, 56, 246, 159, 155, 63, 32, 100, 33, 61, 134, 185, 78, 63, 193, 109, 0, 0, 0, 0, 127, 127, 247, 59, 94, 58, 24, 9, 170, 63, 208, 208, 213, 61, 134, 185, 78, 63, 193, 109, 0, 0, 0, 0, 127, 127, 247, 59, 69, 58, 24, 9, 170, 63, 192, 208, 213, 61, 58, 163, 152, 191, 193, 109, 0, 0, 0, 0, 127, 127, 118, 58, 69, 58, 246, 159, 155, 63, 16, 100, 33, 61, 58, 163, 152, 191, 193, 109, 0, 0, 0, 0, 127, 127, 118, 58, 94, 58, 58, 114, 184, 63, 104, 139, 185, 189, 58, 163, 152, 191, 0, 0, 129, 0, 63, 109, 0, 127, 147, 58, 149, 55, 24, 9, 170, 63, 20, 85, 31, 190, 58, 163, 152, 191, 0, 0, 129, 0, 63, 109, 0, 127, 125, 58, 174, 55, 246, 159, 155, 63, 104, 139, 185, 189, 58, 163, 152, 191, 0, 0, 129, 0, 63, 109, 0, 127, 125, 58, 224, 55, 246, 159, 155, 63, 16, 100, 33, 61, 58, 163, 152, 191, 0, 0, 129, 0, 63, 109, 0, 127, 147, 58, 249, 55, 24, 9, 170, 63, 192, 208, 213, 61, 58, 163, 152, 191, 0, 0, 129, 0, 63, 109, 0, 127, 169, 58, 224, 55, 58, 114, 184, 63, 16, 100, 33, 61, 58, 163, 152, 191, 0, 0, 129, 0, 63, 109, 0, 127, 169, 58, 174, 55, 246, 159, 155, 63, 32, 100, 33, 61, 134, 185, 78, 63, 0, 0, 127, 0, 127, 0, 0, 127, 196, 59, 172, 55, 246, 159, 155, 63, 88, 139, 185, 189, 134, 185, 78, 63, 0, 0, 127, 0, 127, 0, 0, 127, 196, 59, 222, 55, 24, 9, 170, 63, 8, 85, 31, 190, 134, 185, 78, 63, 0, 0, 127, 0, 127, 0, 0, 127, 218, 59, 247, 55, 58, 114, 184, 63, 88, 139, 185, 189, 134, 185, 78, 63, 0, 0, 127, 0, 127, 0, 0, 127, 240, 59, 222, 55, 58, 114, 184, 63, 64, 100, 33, 61, 134, 185, 78, 63, 0, 0, 127, 0, 127, 0, 0, 127, 240, 59, 172, 55, 24, 9, 170, 63, 208, 208, 213, 61, 134, 185, 78, 63, 0, 0, 127, 0, 127, 0, 0, 127, 218, 59, 147, 55, 24, 9, 170, 63, 8, 85, 31, 190, 134, 185, 78, 63, 193, 147, 0, 0, 0, 0, 127, 127, 247, 59, 250, 57, 246, 159, 155, 63, 88, 139, 185, 189, 134, 185, 78, 63, 193, 147, 0, 0, 0, 0, 127, 127, 247, 59, 225, 57, 246, 159, 155, 63, 104, 139, 185, 189, 58, 163, 152, 191, 193, 147, 0, 0, 0, 0, 127, 127, 118, 58, 225, 57, 24, 9, 170, 63, 20, 85, 31, 190, 58, 163, 152, 191, 193, 147, 0, 0, 0, 0, 127, 127, 118, 58, 250, 57, 58, 114, 184, 63, 64, 100, 33, 61, 134, 185, 78, 63, 127, 0, 0, 0, 0, 0, 127, 127, 247, 59, 44, 58, 58, 114, 184, 63, 88, 139, 185, 189, 134, 185, 78, 63, 127, 0, 0, 0, 0, 0, 127, 127, 247, 59, 19, 58, 58, 114, 184, 63, 104, 139, 185, 189, 58, 163, 152, 191, 127, 0, 0, 0, 0, 0, 127, 127, 118, 58, 19, 58, 58, 114, 184, 63, 16, 100, 33, 61, 58, 163, 152, 191, 127, 0, 0, 0, 0, 0, 127, 127, 118, 58, 44, 58, 246, 159, 155, 63, 88, 139, 185, 189, 134, 185, 78, 63, 129, 0, 0, 0, 0, 0, 126, 127, 247, 59, 119, 58, 246, 159, 155, 63, 32, 100, 33, 61, 134, 185, 78, 63, 129, 0, 0, 0, 0, 0, 127, 127, 247, 59, 94, 58, 246, 159, 155, 63, 16, 100, 33, 61, 58, 163, 152, 191, 129, 0, 0, 0, 0, 0, 126, 127, 118, 58, 94, 58, 246, 159, 155, 63, 104, 139, 185, 189, 58, 163, 152, 191, 129, 0, 0, 0, 0, 0, 127, 127, 118, 58, 119, 58, 58, 114, 184, 63, 88, 139, 185, 189, 134, 185, 78, 63, 63, 147, 0, 0, 0, 0, 127, 127, 247, 59, 19, 58, 24, 9, 170, 63, 8, 85, 31, 190, 134, 185, 78, 63, 63, 147, 0, 0, 0, 0, 127, 127, 247, 59, 250, 57, 24, 9, 170, 63, 20, 85, 31, 190, 58, 163, 152, 191, 63, 147, 0, 0, 0, 0, 127, 127, 118, 58, 250, 57, 58, 114, 184, 63, 104, 139, 185, 189, 58, 163, 152, 191, 63, 147, 0, 0, 0, 0, 127, 127, 118, 58, 19, 58, 24, 9, 170, 63, 208, 208, 213, 61, 134, 185, 78, 63, 63, 109, 0, 0, 0, 0, 127, 127, 247, 59, 69, 58, 58, 114, 184, 63, 64, 100, 33, 61, 134, 185, 78, 63, 63, 109, 0, 0, 0, 0, 127, 127, 247, 59, 44, 58, 58, 114, 184, 63, 16, 100, 33, 61, 58, 163, 152, 191, 63, 109, 0, 0, 0, 0, 127, 127, 118, 58, 44, 58, 24, 9, 170, 63, 192, 208, 213, 61, 58, 163, 152, 191, 63, 109, 0, 0, 0, 0, 127, 127, 118, 58, 69, 58, 144, 81, 15, 63, 244, 42, 138, 62, 50, 165, 165, 191, 124, 17, 240, 0, 20, 134, 26, 127, 14, 54, 20, 52, 252, 255, 255, 62, 248, 135, 59, 63, 50, 165, 165, 191, 124, 16, 240, 0, 19, 134, 27, 127, 3, 53, 84, 52, 28, 242, 0, 63, 177, 178, 142, 62, 16, 173, 18, 192, 125, 16, 250, 0, 17, 134, 28, 127, 27, 53, 17, 47, 92, 26, 103, 191, 76, 126, 69, 190, 212, 108, 128, 191, 139, 213, 234, 0, 17, 164, 85, 127, 249, 51, 31, 58, 36, 242, 0, 191, 26, 85, 51, 190, 16, 173, 18, 192, 139, 234, 214, 0, 239, 173, 93, 127, 246, 49, 122, 58 ),
"array_index_data": PoolByteArray( 0, 0, 2, 0, 1, 0, 0, 0, 3, 0, 2, 0, 4, 0, 6, 0, 5, 0, 7, 0, 8, 0, 1, 0, 7, 0, 9, 0, 8, 0, 10, 0, 12, 0, 11, 0, 10, 0, 13, 0, 12, 0, 14, 0, 12, 0, 13, 0, 14, 0, 15, 0, 12, 0, 6, 0, 16, 0, 5, 0, 17, 0, 13, 0, 10, 0, 18, 0, 9, 0, 7, 0, 18, 0, 19, 0, 9, 0, 10, 0, 20, 0, 17, 0, 10, 0, 21, 0, 20, 0, 1, 0, 22, 0, 7, 0, 1, 0, 2, 0, 22, 0, 23, 0, 25, 0, 24, 0, 23, 0, 26, 0, 25, 0, 27, 0, 29, 0, 28, 0, 27, 0, 30, 0, 29, 0, 31, 0, 33, 0, 32, 0, 31, 0, 34, 0, 33, 0, 9, 0, 36, 0, 35, 0, 9, 0, 19, 0, 36, 0, 37, 0, 39, 0, 38, 0, 37, 0, 40, 0, 39, 0, 1, 0, 41, 0, 0, 0, 1, 0, 8, 0, 41, 0, 4, 0, 42, 0, 6, 0, 4, 0, 43, 0, 42, 0, 7, 0, 44, 0, 18, 0, 7, 0, 22, 0, 44, 0, 17, 0, 46, 0, 45, 0, 17, 0, 20, 0, 46, 0, 47, 0, 49, 0, 48, 0, 47, 0, 50, 0, 49, 0, 51, 0, 53, 0, 52, 0, 51, 0, 54, 0, 53, 0, 55, 0, 57, 0, 56, 0, 55, 0, 58, 0, 57, 0, 48, 0, 59, 0, 47, 0, 48, 0, 60, 0, 59, 0, 61, 0, 63, 0, 62, 0, 61, 0, 64, 0, 63, 0, 65, 0, 62, 0, 66, 0, 65, 0, 61, 0, 62, 0, 67, 0, 69, 0, 68, 0, 67, 0, 70, 0, 69, 0, 70, 0, 71, 0, 69, 0, 70, 0, 72, 0, 71, 0, 69, 0, 64, 0, 61, 0, 69, 0, 71, 0, 64, 0, 71, 0, 73, 0, 64, 0, 71, 0, 74, 0, 73, 0, 75, 0, 77, 0, 76, 0, 75, 0, 78, 0, 77, 0, 79, 0, 81, 0, 80, 0, 79, 0, 82, 0, 81, 0, 4, 0, 83, 0, 43, 0, 4, 0, 84, 0, 83, 0, 85, 0, 87, 0, 86, 0, 85, 0, 88, 0, 87, 0, 53, 0, 89, 0, 52, 0, 53, 0, 90, 0, 89, 0, 11, 0, 21, 0, 10, 0, 11, 0, 91, 0, 21, 0, 92, 0, 94, 0, 93, 0, 92, 0, 95, 0, 94, 0, 96, 0, 98, 0, 97, 0, 96, 0, 99, 0, 98, 0, 100, 0, 102, 0, 101, 0, 100, 0, 103, 0, 102, 0, 104, 0, 106, 0, 105, 0, 104, 0, 107, 0, 106, 0, 108, 0, 110, 0, 109, 0, 108, 0, 111, 0, 110, 0, 112, 0, 114, 0, 113, 0, 112, 0, 115, 0, 114, 0, 103, 0, 116, 0, 102, 0, 103, 0, 117, 0, 116, 0, 117, 0, 118, 0, 116, 0, 117, 0, 119, 0, 118, 0, 119, 0, 113, 0, 118, 0, 119, 0, 112, 0, 113, 0, 99, 0, 120, 0, 98, 0, 99, 0, 121, 0, 120, 0, 121, 0, 122, 0, 120, 0, 121, 0, 123, 0, 122, 0, 123, 0, 109, 0, 122, 0, 123, 0, 108, 0, 109, 0, 26, 0, 124, 0, 25, 0, 26, 0, 125, 0, 124, 0, 125, 0, 126, 0, 124, 0, 125, 0, 127, 0, 126, 0, 127, 0, 93, 0, 126, 0, 127, 0, 92, 0, 93, 0, 128, 0, 130, 0, 129, 0, 128, 0, 131, 0, 130, 0, 132, 0, 134, 0, 133, 0, 132, 0, 135, 0, 134, 0, 133, 0, 107, 0, 104, 0, 133, 0, 134, 0, 107, 0, 136, 0, 138, 0, 137, 0, 136, 0, 139, 0, 138, 0, 140, 0, 142, 0, 141, 0, 140, 0, 143, 0, 142, 0, 144, 0, 146, 0, 145, 0, 144, 0, 147, 0, 146, 0, 148, 0, 150, 0, 149, 0, 148, 0, 151, 0, 150, 0, 152, 0, 154, 0, 153, 0, 154, 0, 156, 0, 155, 0, 156, 0, 152, 0, 157, 0, 154, 0, 152, 0, 156, 0, 158, 0, 160, 0, 159, 0, 160, 0, 162, 0, 161, 0, 162, 0, 158, 0, 163, 0, 160, 0, 158, 0, 162, 0, 164, 0, 166, 0, 165, 0, 164, 0, 167, 0, 166, 0, 168, 0, 170, 0, 169, 0, 168, 0, 171, 0, 170, 0, 172, 0, 174, 0, 173, 0, 172, 0, 175, 0, 174, 0, 176, 0, 178, 0, 177, 0, 176, 0, 179, 0, 178, 0, 180, 0, 182, 0, 181, 0, 180, 0, 183, 0, 182, 0, 184, 0, 186, 0, 185, 0, 184, 0, 187, 0, 186, 0, 188, 0, 190, 0, 189, 0, 190, 0, 192, 0, 191, 0, 192, 0, 188, 0, 193, 0, 190, 0, 188, 0, 192, 0, 194, 0, 196, 0, 195, 0, 196, 0, 198, 0, 197, 0, 198, 0, 194, 0, 199, 0, 196, 0, 194, 0, 198, 0, 200, 0, 202, 0, 201, 0, 200, 0, 203, 0, 202, 0, 204, 0, 206, 0, 205, 0, 204, 0, 207, 0, 206, 0, 208, 0, 210, 0, 209, 0, 208, 0, 211, 0, 210, 0, 212, 0, 214, 0, 213, 0, 212, 0, 215, 0, 214, 0, 216, 0, 218, 0, 217, 0, 216, 0, 219, 0, 218, 0, 220, 0, 17, 0, 45, 0, 221, 0, 17, 0, 220, 0, 222, 0, 221, 0, 220, 0, 223, 0, 225, 0, 224, 0, 223, 0, 226, 0, 225, 0, 227, 0, 229, 0, 228, 0, 230, 0, 29, 0, 30, 0, 230, 0, 226, 0, 29, 0, 231, 0, 12, 0, 232, 0, 231, 0, 11, 0, 12, 0, 233, 0, 12, 0, 15, 0, 233, 0, 232, 0, 12, 0, 228, 0, 229, 0, 234, 0, 235, 0, 231, 0, 232, 0, 18, 0, 30, 0, 19, 0, 18, 0, 230, 0, 30, 0, 231, 0, 237, 0, 236, 0, 231, 0, 235, 0, 237, 0, 226, 0, 238, 0, 225, 0, 226, 0, 230, 0, 238, 0, 239, 0, 241, 0, 240, 0, 239, 0, 242, 0, 241, 0, 243, 0, 245, 0, 244, 0, 243, 0, 246, 0, 245, 0, 30, 0, 36, 0, 19, 0, 30, 0, 247, 0, 36, 0, 248, 0, 250, 0, 249, 0, 248, 0, 251, 0, 250, 0, 226, 0, 252, 0, 29, 0, 226, 0, 223, 0, 252, 0, 227, 0, 254, 0, 253, 0, 227, 0, 228, 0, 254, 0, 230, 0, 44, 0, 238, 0, 230, 0, 18, 0, 44, 0, 235, 0, 255, 0, 237, 0, 235, 0, 0, 1, 255, 0, 1, 1, 3, 1, 2, 1, 1, 1, 4, 1, 3, 1, 5, 1, 7, 1, 6, 1, 5, 1, 8, 1, 7, 1, 9, 1, 11, 1, 10, 1, 9, 1, 12, 1, 11, 1, 4, 1, 14, 1, 13, 1, 4, 1, 1, 1, 14, 1, 15, 1, 17, 1, 16, 1, 15, 1, 18, 1, 17, 1, 65, 0, 18, 1, 15, 1, 65, 0, 66, 0, 18, 1, 67, 0, 20, 1, 19, 1, 67, 0, 68, 0, 20, 1, 19, 1, 22, 1, 21, 1, 19, 1, 20, 1, 22, 1, 20, 1, 16, 1, 22, 1, 20, 1, 15, 1, 16, 1, 22, 1, 24, 1, 23, 1, 22, 1, 16, 1, 24, 1, 25, 1, 27, 1, 26, 1, 25, 1, 28, 1, 27, 1, 29, 1, 31, 1, 30, 1, 29, 1, 32, 1, 31, 1, 227, 0, 34, 1, 33, 1, 227, 0, 253, 0, 34, 1, 35, 1, 37, 1, 36, 1, 35, 1, 38, 1, 37, 1, 7, 1, 40, 1, 39, 1, 7, 1, 8, 1, 40, 1, 11, 0, 236, 0, 91, 0, 11, 0, 231, 0, 236, 0, 41, 1, 43, 1, 42, 1, 41, 1, 44, 1, 43, 1, 45, 1, 47, 1, 46, 1, 45, 1, 48, 1, 47, 1, 49, 1, 51, 1, 50, 1, 49, 1, 52, 1, 51, 1, 53, 1, 106, 0, 54, 1, 53, 1, 105, 0, 106, 0, 55, 1, 57, 1, 56, 1, 55, 1, 58, 1, 57, 1, 59, 1, 61, 1, 60, 1, 59, 1, 62, 1, 61, 1, 50, 1, 64, 1, 63, 1, 50, 1, 51, 1, 64, 1, 63, 1, 66, 1, 65, 1, 63, 1, 64, 1, 66, 1, 65, 1, 62, 1, 59, 1, 65, 1, 66, 1, 62, 1, 46, 1, 68, 1, 67, 1, 46, 1, 47, 1, 68, 1, 67, 1, 70, 1, 69, 1, 67, 1, 68, 1, 70, 1, 69, 1, 58, 1, 55, 1, 69, 1, 70, 1, 58, 1, 240, 0, 72, 1, 71, 1, 240, 0, 241, 0, 72, 1, 71, 1, 74, 1, 73, 1, 71, 1, 72, 1, 74, 1, 73, 1, 44, 1, 41, 1, 73, 1, 74, 1, 44, 1, 75, 1, 77, 1, 76, 1, 75, 1, 78, 1, 77, 1, 79, 1, 81, 1, 80, 1, 79, 1, 82, 1, 81, 1, 82, 1, 54, 1, 81, 1, 82, 1, 53, 1, 54, 1, 136, 0, 84, 1, 83, 1, 136, 0, 137, 0, 84, 1, 85, 1, 87, 1, 86, 1, 85, 1, 88, 1, 87, 1, 89, 1, 91, 1, 90, 1, 89, 1, 92, 1, 91, 1, 93, 1, 95, 1, 94, 1, 93, 1, 96, 1, 95, 1, 97, 1, 99, 1, 98, 1, 99, 1, 101, 1, 100, 1, 101, 1, 97, 1, 102, 1, 99, 1, 97, 1, 101, 1, 103, 1, 105, 1, 104, 1, 105, 1, 107, 1, 106, 1, 107, 1, 103, 1, 108, 1, 105, 1, 103, 1, 107, 1, 109, 1, 111, 1, 110, 1, 109, 1, 112, 1, 111, 1, 113, 1, 115, 1, 114, 1, 113, 1, 116, 1, 115, 1, 117, 1, 119, 1, 118, 1, 117, 1, 120, 1, 119, 1, 121, 1, 123, 1, 122, 1, 121, 1, 124, 1, 123, 1, 125, 1, 127, 1, 126, 1, 125, 1, 128, 1, 127, 1, 129, 1, 131, 1, 130, 1, 129, 1, 132, 1, 131, 1, 133, 1, 135, 1, 134, 1, 135, 1, 137, 1, 136, 1, 137, 1, 133, 1, 138, 1, 135, 1, 133, 1, 137, 1, 139, 1, 141, 1, 140, 1, 141, 1, 143, 1, 142, 1, 143, 1, 139, 1, 144, 1, 141, 1, 139, 1, 143, 1, 145, 1, 147, 1, 146, 1, 145, 1, 148, 1, 147, 1, 149, 1, 151, 1, 150, 1, 149, 1, 152, 1, 151, 1, 153, 1, 155, 1, 154, 1, 153, 1, 156, 1, 155, 1, 157, 1, 159, 1, 158, 1, 157, 1, 160, 1, 159, 1, 161, 1, 163, 1, 162, 1, 161, 1, 164, 1, 163, 1, 165, 1, 0, 1, 235, 0, 166, 1, 165, 1, 235, 0, 167, 1, 165, 1, 166, 1, 8, 0, 169, 1, 168, 1, 8, 0, 9, 0, 169, 1 ),
"blend_shape_data": [  ],
"format": 97559,
"index_count": 912,
"material": ExtResource( 1 ),
"primitive": 4,
"skeleton_aabb": [  ],
"vertex_count": 426
}

[node name="Spaceship" type="MeshInstance"]
mesh = SubResource( 1 )
material/0 = null
